<svg width="517.9995594702221" height="517.9995594702221" xmlns="http://www.w3.org/2000/svg">
 <g>
  <title>background</title>
  <rect height="520" width="520" y="-1" x="-1" fill="none" id="canvas_background"/>
 </g>

 <g>
  <title>Layer 1</title>
  <ellipse ry="256" rx="256" cy="261.666" cx="260.676" stroke-width="null" stroke-opacity="null" stroke="null" fill="#ffe6a1" id="svg_58"/>
  <path d="m484.298004,254.026001l-24.341003,4.868011c-8.100006,1.619995 -16.240997,-2.593018 -19.596008,-10.142014l-26.072998,-58.666c-2.207001,-4.966995 -6.578979,-8.638992 -11.850983,-9.957993l-13.583008,-3.395004c-7.860016,-1.964996 -13.373016,-9.026001 -13.373016,-17.128006l0,-94.135498c0,-4.398998 -1.642975,-8.639999 -4.605988,-11.891998l-32.794006,-35.986c-29.566986,-9.363039 -61.438995,-13.54004 -94.574997,-11.358039c-127.354996,8.39004 -230.523497,111.98954 -238.294497,239.382537c-9.06701,148.65799 108.810503,272.050018 255.509508,272.050018c139.923004,0 253.554993,-112.275024 255.890991,-251.641022l-20.954987,-10.47699c-3.512024,-1.757004 -7.509003,-2.292007 -11.359009,-1.522003l0,0z" fill="#ffe6a1" id="svg_1"/>
  <g id="svg_2">
   <path d="m340.961456,392.355438c-1.554016,0 -3.085022,-0.088989 -4.632019,-0.115997c-14.697998,0.38501 -24.419006,-18.222992 -40.143005,-18.222992c-23.160004,0 -33.616974,6.981995 -49.356003,0.395996c-31.679001,-12.536987 -63.222,-50.630005 -84.266998,-54.536987c-6.637009,1.576996 -15.744003,6.261993 -19.734009,6.261993c-21.551994,-1.21402 -31.385994,-22.188019 -31.385994,-44.127014c0,-7.661987 8.319,-14.84198 7.288002,-20.264984c-0.364006,-4.807007 -2.330002,-8.410995 -6.758003,-12.054001c-37.289696,-29.40799 -44.667068,-14.685989 -44.667068,-42.714996c0,-16.518997 7.565971,-31.263992 19.417068,-40.977997c6.672798,-6.304001 -1.7621,-19.608994 -1.7621,-29.643005c0,-50.348694 14.594002,-97.261696 39.697098,-136.853656c-71.585995,45.388061 -119.144967,125.266658 -119.144967,216.302661c0,141.384995 114.614968,255.999985 255.99997,255.999985c91.036011,0 170.914001,-47.55899 216.303009,-119.144989c-39.59198,25.102997 -86.505005,39.695984 -136.85498,39.695984l0,0z" transform="rotate(97 241.665 235.655)" fill="#ffd796" id="svg_3"/>
   <circle r="22.069" cy="239.948" cx="372.847" transform="rotate(97 372.838 239.951)" fill="#ffd796" id="svg_4"/>
   <circle r="22.0688" cy="331.529" cx="236.132" transform="rotate(97 236.123 331.533)" fill="#ffd796" id="svg_5"/>
   <circle r="15.448" cy="184.626" cx="281.955" transform="rotate(97 281.945 184.629)" fill="#ffd796" id="svg_6"/>
   <circle r="15.448" cy="453.51" cx="176.105" transform="rotate(97 176.095 453.512)" fill="#ffd796" id="svg_7"/>
   <circle r="15.448" cy="232.3" cx="474.609" transform="rotate(97 474.6 232.302)" fill="#ffd796" id="svg_8"/>
   <circle r="10" cy="435.04" cx="360.862" transform="rotate(97 360.853 435.043)" fill="#ffd796" id="svg_72"/>
  </g>
  <g id="svg_9">
   <path d="m263.058441,258.823456l-10.205017,17.009979c-6.099991,10.165009 -0.643997,23.335999 10.857025,26.210999l30.376007,7.593018c9.459991,2.36499 19.04599,-3.386017 21.409973,-12.846008l3.475006,-13.899994c0.703003,-2.812012 0.703003,-5.752014 0,-8.563995l-3.673981,-14.696991c-2.285004,-9.143005 -11.348999,-14.878998 -20.590027,-13.031006l-19.971985,3.994003c-4.877991,0.977005 -9.117004,3.964996 -11.677002,8.229996z" transform="rotate(-98 284.913 278.211)" fill="#b97850" id="svg_10"/>
   <path d="m367.323456,181.80246l-10.643005,17.737991c-5.291016,8.819 -1.955017,20.276001 7.242981,24.875l33.882019,16.94101c10.10199,5.052002 22.283997,-0.552002 25.023987,-11.509003l3.490021,-13.960007l4.078979,-16.319c2.539001,-10.155991 -4.266998,-20.278992 -14.631989,-21.759995l-30.809021,-4.401993c-7.029999,-1.004013 -13.97998,2.304993 -17.633972,8.395996z" transform="rotate(-98 392.547 208.229)" fill="#b97850" id="svg_11"/>
   <path d="m297.209442,380.231445l-12.989014,21.648987c-4.167999,6.947021 -3.072998,15.83902 2.655029,21.568024l20.441986,20.442993c7.44101,7.440979 19.696991,6.761993 26.270996,-1.455017l17.524994,-21.906982c3.442017,-4.302002 4.678009,-9.964996 3.341003,-15.311005l-3.997009,-15.988007c-1.654999,-6.619995 -6.974976,-11.691986 -13.664978,-13.031006l-20.981995,-4.195984c-7.31601,-1.46402 -14.762024,1.829987 -18.601013,8.227997z" transform="rotate(-98 318.344 410.361)" fill="#b97850" id="svg_12"/>
   <path d="m135.473434,338.646454l-10.016006,16.694c-5.810997,9.684998 -1.158997,22.260986 9.556,25.832977l21.735001,7.245026c6.343994,2.113983 13.337997,0.462982 18.067001,-4.265015l11.699005,-11.699005c4.384995,-4.384979 6.147995,-10.75 4.643997,-16.765991l-3.059998,-12.239014c-1.965012,-7.860992 -9.027008,-13.375 -17.129013,-13.375l-20.357986,0c-6.200012,0.001007 -11.947006,3.255005 -15.138,8.572021z" transform="rotate(-98 157.31 359.699)" fill="#b97850" id="svg_13"/>
   <path d="m240.727432,114.735458l-10.219009,10.219002c-6.893997,6.894005 -6.893997,18.07299 0,24.967995l5.001007,5.001007c5.373993,5.373993 13.582001,6.705994 20.380005,3.306992l28.917023,-14.457993c7.40097,-3.701004 11.23999,-12.044998 9.232971,-20.073006l-1.309998,-5.238998c-2.284973,-9.142998 -11.348999,-14.878899 -20.589996,-13.030899l-22.389008,4.477898c-3.419006,0.681999 -6.557999,2.362999 -9.022995,4.828003z" transform="rotate(-98 259.953 132.589)" fill="#b97850" id="svg_14"/>
   <path d="m135.020432,186.730453l-11.725006,15.634003c-4.306999,5.742004 -4.708,13.522003 -1.014999,19.677002l10.848999,18.080994c5.186005,8.644012 16.544998,11.198013 24.932007,5.60701l22.029999,-14.686996c8.43399,-5.622009 10.412003,-17.175003 4.330994,-25.283005l-11.975998,-15.968002c-2.154999,-2.873001 -5.134003,-5.020996 -8.541,-6.156006l-9.177994,-3.059998c-7.210007,-2.404999 -15.14801,0.074997 -19.707001,6.154999z" transform="rotate(-98 153.86 214.182)" fill="#b97850" id="svg_15"/>
   <path d="m426.369446,304.640442l-11.528015,14.410004c-7.401001,9.251007 -3.769989,23.020996 7.230011,27.421997l15.485016,6.194c4.209991,1.68399 8.904999,1.68399 13.113983,0l17.377991,-6.951996c10.412018,-4.164001 14.354004,-16.855011 8.134003,-26.186005l-2.984985,-4.47699c-1.705017,-2.557007 -4.046021,-4.623016 -6.794006,-5.998016l-18.350006,-9.174988c-7.449005,-3.722992 -16.483978,-1.738007 -21.68399,4.761993z" transform="rotate(-98 445.061 325.971)" fill="#b97850" id="svg_16"/>
   <path d="m120.052429,91.584656l-5.878998,7.933601c-2.159004,2.913803 -2.360001,6.862198 -0.509003,9.985199l5.440002,9.175003c2.599998,4.387001 8.296005,5.682999 12.501007,2.846001l11.04599,-7.453003c4.229004,-2.852997 5.220001,-8.715897 2.171005,-12.830399l-6.004013,-8.103104c-1.080994,-1.457893 -2.574997,-2.547897 -4.28299,-3.123894l-4.602005,-1.552803c-3.614998,-1.220497 -7.595001,0.038002 -9.880997,3.123398z" transform="rotate(-98 129.499 105.515)" fill="#b97850" id="svg_67"/>
  </g>
  <g id="svg_17">
   <path d="m342.382446,453.257446l-20.442017,-20.442017c-5.727997,-5.727997 -6.823975,-14.620972 -2.654999,-21.566986l12.989014,-21.648987c1.108002,-1.846008 2.571991,-3.345001 4.19101,-4.633026l-7.496002,-1.497986c-7.31601,-1.463013 -14.763,1.830994 -18.60202,8.227997l-12.988983,21.648987c-4.167999,6.947021 -3.072998,15.83902 2.654999,21.568024l20.441986,20.441986c6.897003,6.897003 17.875,6.731018 24.684998,0.139008c-0.975983,-0.647003 -1.915985,-1.373993 -2.777985,-2.237z" transform="rotate(-98 320.012 421.804)" fill="#a5694b" id="svg_18"/>
   <path d="m183.195435,389.735443l-21.735001,-7.243988c-10.714005,-3.572021 -15.368011,-16.14801 -9.556,-25.833008l10.015991,-16.694c0.509003,-0.850006 1.182007,-1.549011 1.813004,-2.287018l-4.358002,0c-6.201004,0 -11.947998,3.254028 -15.138992,8.572021l-10.016006,16.692993c-5.811996,9.684998 -1.160004,22.260986 9.556,25.833008l21.735001,7.244995c6.343994,2.113983 13.337997,0.462982 18.067001,-4.265015l1.645004,-1.644989c-0.67601,-0.140015 -1.362,-0.153015 -2.028,-0.375z" transform="rotate(-98 158.46 367.302)" fill="#a5694b" id="svg_19"/>
   <path d="m316.876434,307.412445l-30.375977,-7.593994c-11.502014,-2.876007 -16.958008,-16.045013 -10.857025,-26.210999l10.205017,-17.009003c1.214996,-2.024979 2.828979,-3.733994 4.690002,-5.104996l-9.764008,1.953003c-4.877014,0.975006 -9.118011,3.964005 -11.677002,8.229996l-10.205017,17.009003c-6.099991,10.165985 -0.643982,23.335999 10.857025,26.210999l30.376007,7.593994c6.398987,1.600006 12.798981,-0.571991 17.037994,-5.035004c-0.096008,-0.023987 -0.19101,-0.019012 -0.287018,-0.042999z" transform="rotate(-98 286.765 282.254)" fill="#a5694b" id="svg_20"/>
   <path d="m166.782425,253.50946l-10.848999,-18.081009c-3.692993,-6.154999 -3.291992,-13.932999 1.014999,-19.676987l11.725006,-15.633011c1.283997,-1.712997 2.877991,-3.054993 4.606003,-4.167999l-1.391006,-0.462997c-7.210007,-2.403 -15.147995,0.076996 -19.707993,6.156006l-11.724014,15.632996c-4.306992,5.742996 -4.707993,13.522003 -1.014999,19.677002l10.848999,18.080994c5.169006,8.61499 16.466003,11.169983 24.844009,5.652985c-3.35701,-1.397003 -6.328995,-3.806976 -8.352005,-7.177979z" transform="rotate(-98 156.031 229.09)" fill="#a5694b" id="svg_21"/>
   <path d="m253.582428,157.247452c-6.895004,-6.894989 -6.895004,-18.072998 0,-24.967987l10.219025,-10.219009c2.463989,-2.463997 5.602997,-4.144997 9.022003,-4.827995l18.845001,-3.769005c-4.032013,-3.832001 -9.789001,-5.702995 -15.626007,-4.534996l-22.389023,4.477997c-3.417999,0.684006 -6.557007,2.363998 -9.022003,4.828003l-10.218994,10.219002c-6.893997,6.895004 -6.893997,18.072998 0,24.968002l5.000992,5.000992c5.041,5.041 12.541,6.362 19.065002,3.723007l-4.895996,-4.89801z" transform="rotate(-98 260.456 136.029)" fill="#a5694b" id="svg_22"/>
   <path d="m393.609436,229.733459c-9.197998,-4.598999 -12.535004,-16.056 -7.242981,-24.875l10.642975,-17.737c1.396027,-2.324997 3.369019,-4.087997 5.545013,-5.516998l-9.779999,-1.397003c-7.032013,-1.005005 -13.980988,2.302994 -17.63501,8.393997l-10.643005,17.738007c-5.290985,8.819 -1.954987,20.276001 7.243011,24.875l33.881989,16.940994c6.753021,3.376999 14.374023,1.919006 19.542999,-2.643005l-31.554993,-15.778992z" transform="rotate(-98 393.571 215.017)" fill="#a5694b" id="svg_23"/>
   <path d="m468.031433,360.793457l-15.484985,-6.194c-10.998993,-4.399017 -14.630005,-18.171021 -7.230011,-27.422028l11.528015,-14.409973c0.731995,-0.915009 1.553986,-1.715027 2.421997,-2.447021c-7.106018,-2.720978 -15.242004,-0.647003 -20.076996,5.39801l-11.528015,14.410004c-7.401001,9.251007 -3.769989,23.020996 7.230011,27.421997l15.484985,6.194c4.210022,1.68399 8.904999,1.68399 13.114014,0l6.177002,-2.471008c-0.546997,-0.158997 -1.104004,-0.266998 -1.636017,-0.47998z" transform="rotate(-98 446.728 337.074)" fill="#a5694b" id="svg_24"/>
   <path d="m135.944427,125.340462l-5.401993,-9.160004c-1.839005,-3.117996 -1.639008,-7.057999 0.50499,-9.967003l5.837997,-7.9198c0.639999,-0.867699 1.432999,-1.5476 2.294006,-2.111397l-0.692993,-0.234497c-3.590012,-1.2173 -7.542007,0.038994 -9.813004,3.118393l-5.837006,7.919304c-2.144997,2.908997 -2.344002,6.849998 -0.505997,9.968002l5.402008,9.158989c2.57399,4.364006 8.19899,5.659019 12.369995,2.864006c-1.671005,-0.707993 -3.151001,-1.929001 -4.158005,-3.635994z" transform="rotate(-98 130.591 112.97)" fill="#a5694b" id="svg_69"/>
  </g>
  <path d="m75.331429,367.58844c-1.322998,0 -2.673004,-0.300995 -3.939003,-0.931c-4.361969,-2.181 -6.129921,-7.481995 -3.947975,-11.843994l8.82798,-17.654999c2.181999,-4.362 7.469994,-6.112 11.843994,-3.947998c4.362,2.182007 6.130005,7.481995 3.948006,11.843994l-8.828003,17.654999c-1.546997,3.093994 -4.663002,4.878998 -7.904999,4.878998z" fill="#c98850" id="svg_25"/>
  <path d="m243.238434,433.355438l-8.828003,0c-4.875,0 -8.828003,-3.947998 -8.828003,-8.828003c0,-4.878998 3.953003,-8.828003 8.828003,-8.828003l8.828003,0c4.875,0 8.827988,3.947998 8.827988,8.828003c0,4.880005 -3.952988,8.828003 -8.827988,8.828003z" fill="#925f4a" id="svg_26"/>
  <path d="m202.649429,302.631439c-1.322998,0 -2.673004,-0.300995 -3.938995,-0.931c-4.362,-2.182007 -6.130005,-7.483002 -3.948013,-11.843994l8.828003,-17.654999c2.177002,-4.352997 7.466003,-6.112 11.844009,-3.947998c4.362,2.182007 6.12999,7.481995 3.947998,11.843994l-8.828003,17.654999c-1.546997,3.095001 -4.664001,4.878998 -7.904999,4.878998z" fill="#c98850" id="svg_27"/>
  <g id="svg_28">
   <path d="m154.495422,179.012451c-1.322998,0 -2.672989,-0.300995 -3.938995,-0.931l-17.654999,-8.827988c-4.362,-2.182007 -6.129997,-7.48201 -3.947998,-11.844009c2.177002,-4.352997 7.470001,-6.121002 11.843994,-3.947998l17.654999,8.826996c4.362,2.182007 6.130005,7.48201 3.947998,11.844009c-1.546997,3.095001 -4.663986,4.87999 -7.904999,4.87999z" fill="#925f4a" id="svg_29"/>
   <path d="m260.435425,55.425461l-17.654999,0c-4.875,0 -8.828003,-3.948006 -8.828003,-8.828003s3.953003,-8.8284 8.828003,-8.8284l17.654999,0c4.875,0 8.828003,3.948402 8.828003,8.8284s-3.953003,8.828003 -8.828003,8.828003z" fill="#925f4a" id="svg_30"/>
   <path d="m420.570435,95.965454l-17.654999,0c-4.875,0 -8.828003,-3.947998 -8.828003,-8.828003s3.953003,-8.827988 8.828003,-8.827988l17.654999,0c4.875,0 8.828003,3.947998 8.828003,8.827988s-3.953003,8.828003 -8.828003,8.828003z" transform="rotate(-86 411.742 87.1381)" fill="#925f4a" id="svg_70"/>
  </g>
  <path d="m356.808441,161.271454c-3.242004,0 -6.358002,-1.783997 -7.904999,-4.878998l-8.828003,-17.654999c-2.182007,-4.362 -0.414001,-9.664001 3.947998,-11.843994c4.371002,-2.173004 9.667999,-0.405006 11.843994,3.947998l8.828003,17.654999c2.182007,4.362 0.414001,9.664001 -3.947998,11.843994c-1.268005,0.630005 -2.615997,0.931 -3.938995,0.931z" fill="#c98850" id="svg_31"/>
  <g id="svg_32">
   <path d="m45.601425,239.957458c-1.186996,-0.585007 -2.264,-1.451996 -3.123001,-2.576996c-2.949997,-3.884003 -2.190994,-9.421005 1.694,-12.369995l15.722,-11.936005c3.880997,-2.951004 9.414001,-2.184998 12.37001,1.694c2.949997,3.884003 2.190994,9.42099 -1.694,12.369995l-15.721008,11.934998c-2.756996,2.091995 -6.340996,2.31601 -9.248001,0.884003z" fill="#925f4a" id="svg_33"/>
   <path d="m376.129456,337.97345c-2.259003,0 -4.518005,-0.861969 -6.241028,-2.585999l-17.654999,-17.654999c-3.447998,-3.447998 -3.447998,-9.035004 0,-12.483002s9.035004,-3.447998 12.483002,0l17.654999,17.655029c3.448029,3.447998 3.448029,9.034973 0,12.482971c-1.724976,1.72403 -3.983978,2.585999 -6.241974,2.585999z" fill="#925f4a" id="svg_34"/>
  </g>
  <path d="m393.135437,411.735443c-2.259003,0 -4.518005,-0.862 -6.240997,-2.585999c-3.447998,-3.447998 -3.447998,-9.035004 0,-12.483002l8.828003,-8.828003c3.447998,-3.447998 9.035004,-3.447998 12.483002,0c3.447998,3.447998 3.447998,9.035004 0,12.483002l-8.828003,8.828003c-1.725006,1.723999 -3.983002,2.585999 -6.242004,2.585999z" fill="#c98850" id="svg_35"/>
  <g id="svg_43"/>
  <g id="svg_44"/>
  <g id="svg_45"/>
  <g id="svg_46"/>
  <g id="svg_47"/>
  <g id="svg_48"/>
  <g id="svg_49"/>
  <g id="svg_50"/>
  <g id="svg_51"/>
  <g id="svg_52"/>
  <g id="svg_53"/>
  <g id="svg_54"/>
  <g id="svg_55"/>
  <g id="svg_56"/>
  <g id="svg_57"/>
  <path d="m478.429443,220.731461c-3.242004,0 -6.358002,-1.783997 -7.904999,-4.878998l-8.828003,-17.654999c-2.182007,-4.362 -0.414001,-9.664001 3.947998,-11.844009c4.371002,-2.172989 9.667999,-0.404999 11.843994,3.947998l8.828003,17.654999c2.182007,4.362 0.414001,9.664001 -3.947998,11.844009c-1.268005,0.630005 -2.615997,0.931 -3.938995,0.931z" fill="#c98850" id="svg_71"/>
 </g>
</svg>